<?xml version="1.0" encoding="UTF-8" standalone="no"?>
<svg width="16px" height="16px" viewBox="0 0 16 16" version="1.1" xmlns="http://www.w3.org/2000/svg" xmlns:xlink="http://www.w3.org/1999/xlink">
    <!-- Generator: Sketch 40.3 (33839) - http://www.bohemiancoding.com/sketch -->
    <title>icon-duplicate-campaign</title>
    <desc>Created with Sketch.</desc>
    <defs></defs>
    <g id="Platform" stroke="none" stroke-width="1" fill="none" fill-rule="evenodd">
        <g id="campaigns-single-create-new" transform="translate(-928.000000, -102.000000)" fill="#FFFFFF">
            <g id="header">
                <g id="Secondary-Bar" transform="translate(0.000000, 60.000000)">
                    <g id="icon-duplicate-campaign" transform="translate(928.000000, 42.000000)">
                        <path d="M15,5 L8,5 C7.4,5 7,5.4 7,6 L7,15 C7,15.6 7.4,16 8,16 L15,16 C15.6,16 16,15.6 16,15 L16,6 C16,5.4 15.6,5 15,5 L15,5 Z" id="Shape"></path>
                        <path d="M6,3 L12,3 L12,1 C12,0.4 11.6,0 11,0 L1,0 C0.4,0 0,0.4 0,1 L0,13 C0,13.6 0.4,14 1,14 L5,14 L5,4 C5,3.4 5.4,3 6,3 Z" id="Shape"></path>
                    </g>
                </g>
            </g>
        </g>
    </g>
</svg>